<?xml version="1.0" encoding="utf-8"?>
<!-- Generator: Adobe Illustrator 22.1.0, SVG Export Plug-In . SVG Version: 6.00 Build 0)  -->
<svg version="1.1" id="Calque_1" xmlns="http://www.w3.org/2000/svg" xmlns:xlink="http://www.w3.org/1999/xlink" x="0px" y="0px"
	 viewBox="0 0 200 200" style="enable-background:new 0 0 200 200;" xml:space="preserve">
<g>
	<path d="M161.3,100.2l-94.1,94.1c-6.5,6.5-17,6.5-23.5,0c-6.5-6.5-6.5-17,0-23.5l70.6-70.6L43.6,29.6c-6.5-6.5-6.5-17,0-23.5
		s17-6.5,23.5,0L161.3,100.2z"/>
</g>
</svg>
